0
SECTION
2
HEADER
9
$INSUNITS
70
4
9
$ACADVER
1
AC1014
9
$HANDSEED
5
FFFF
0
ENDSEC
0
SECTION
2
TABLES
0
TABLE
2
VPORT
5
8
100
AcDbSymbolTable
0
ENDTAB
0
TABLE
2
LTYPE
5
5
100
AcDbSymbolTable
0
LTYPE
5
14
100
AcDbSymbolTableRecord
100
AcDbLinetypeTableRecord
2
BYBLOCK
70
0
0
LTYPE
5
15
100
AcDbSymbolTableRecord
100
AcDbLinetypeTableRecord
2
BYLAYER
70
0
0
ENDTAB
0
TABLE
2
LAYER
5
2
100
AcDbSymbolTable
70
2
0
LAYER
5
50
100
AcDbSymbolTableRecord
100
AcDbLayerTableRecord
2
0
70
0
6
CONTINUOUS
0
ENDTAB
0
TABLE
2
STYLE
5
3
100
AcDbSymbolTable
70
1
0
STYLE
5
11
100
AcDbSymbolTableRecord
100
AcDbTextStyleTableRecord
2
STANDARD
70
0
0
ENDTAB
0
TABLE
2
VIEW
5
6
100
AcDbSymbolTable
70
0
0
ENDTAB
0
TABLE
2
UCS
5
7
100
AcDbSymbolTable
70
0
0
ENDTAB
0
TABLE
2
APPID
5
9
100
AcDbSymbolTable
70
2
0
APPID
5
12
100
AcDbSymbolTableRecord
100
AcDbRegAppTableRecord
2
ACAD
70
0
0
ENDTAB
0
TABLE
2
DIMSTYLE
5
A
100
AcDbSymbolTable
70
1
0
ENDTAB
0
TABLE
2
BLOCK_RECORD
5
1
100
AcDbSymbolTable
70
1
0
BLOCK_RECORD
5
1F
100
AcDbSymbolTableRecord
100
AcDbBlockTableRecord
2
*MODEL_SPACE
0
BLOCK_RECORD
5
1B
100
AcDbSymbolTableRecord
100
AcDbBlockTableRecord
2
*PAPER_SPACE
0
ENDTAB
0
ENDSEC
0
SECTION
2
BLOCKS
0
BLOCK
5
20
100
AcDbEntity
100
AcDbBlockBegin
2
*MODEL_SPACE
0
ENDBLK
5
21
100
AcDbEntity
100
AcDbBlockEnd
0
BLOCK
5
1C
100
AcDbEntity
100
AcDbBlockBegin
2
*PAPER_SPACE
0
ENDBLK
5
1D
100
AcDbEntity
100
AcDbBlockEnd
0
ENDSEC
0
SECTION
2
ENTITIES
0
LINE
5
100
100
AcDbEntity
8
0
100
AcDbLine
10
-25
20
15
30
8.8817841970012523e-15
11
-20
21
15
31
8.8817841970012523e-15
0
LINE
5
101
100
AcDbEntity
8
0
100
AcDbLine
10
-20
20
10
30
8.8817841970012523e-15
11
-25
21
10
31
8.8817841970012523e-15
0
LINE
5
102
100
AcDbEntity
8
0
100
AcDbLine
10
-14
20
12.5
30
8.8817841970012523e-15
11
-14
21
15.300000000000001
31
8.8817841970012523e-15
0
LINE
5
103
100
AcDbEntity
8
0
100
AcDbLine
10
-14
20
15.300000000000001
30
8.8817841970012523e-15
11
-17
21
15.300000000000001
31
8.8817841970012523e-15
0
LINE
5
104
100
AcDbEntity
8
0
100
AcDbLine
10
-14
20
12.5
30
8.8817841970012523e-15
11
-14
21
9.6999999999999993
31
8.8817841970012523e-15
0
LINE
5
105
100
AcDbEntity
8
0
100
AcDbLine
10
-14
20
9.6999999999999993
30
8.8817841970012523e-15
11
-17
21
9.6999999999999993
31
8.8817841970012523e-15
0
LINE
5
106
100
AcDbEntity
8
0
100
AcDbLine
10
-17
20
9.6999999999999993
30
8.8817841970012523e-15
11
-17
21
10.899999999999999
31
8.8817841970012523e-15
0
LINE
5
107
100
AcDbEntity
8
0
100
AcDbLine
10
-17
20
15.300000000000001
30
8.8817841970012523e-15
11
-17
21
14.100000000000001
31
8.8817841970012523e-15
0
LINE
5
108
100
AcDbEntity
8
0
100
AcDbLine
10
-17
20
14.100000000000001
30
8.8817841970012523e-15
11
-20
21
14.100000000000001
31
8.8817841970012523e-15
0
LINE
5
109
100
AcDbEntity
8
0
100
AcDbLine
10
-17
20
10.899999999999999
30
8.8817841970012523e-15
11
-20
21
10.899999999999999
31
8.8817841970012523e-15
0
LINE
5
110
100
AcDbEntity
8
0
100
AcDbLine
10
-20
20
15
30
8.8817841970012523e-15
11
-20
21
14.100000000000001
31
8.8817841970012523e-15
0
LINE
5
111
100
AcDbEntity
8
0
100
AcDbLine
10
-20
20
10
30
8.8817841970012523e-15
11
-20
21
10.899999999999999
31
8.8817841970012523e-15
0
LINE
5
112
100
AcDbEntity
8
0
100
AcDbLine
10
17.000000000000007
20
15.299999999999995
30
0
11
17.000000000000004
21
14.099999999999994
31
0
0
LINE
5
113
100
AcDbEntity
8
0
100
AcDbLine
10
17.000000000000004
20
14.099999999999994
30
0
11
20.000000000000004
21
14.099999999999993
31
0
0
LINE
5
114
100
AcDbEntity
8
0
100
AcDbLine
10
14.000000000000004
20
12.499999999999996
30
0
11
14.000000000000004
21
15.299999999999995
31
0
0
LINE
5
115
100
AcDbEntity
8
0
100
AcDbLine
10
14.000000000000004
20
15.299999999999995
30
0
11
17.000000000000007
21
15.299999999999995
31
0
0
LINE
5
116
100
AcDbEntity
8
0
100
AcDbLine
10
20.000000000000004
20
14.999999999999993
30
0
11
20.000000000000004
21
14.099999999999993
31
0
0
LINE
5
117
100
AcDbEntity
8
0
100
AcDbLine
10
17
20
9.6999999999999975
30
0
11
17
21
10.899999999999997
31
0
0
LINE
5
118
100
AcDbEntity
8
0
100
AcDbLine
10
25.000000000000004
20
9.9999999999999929
30
0
11
20
21
9.9999999999999929
31
0
0
LINE
5
119
100
AcDbEntity
8
0
100
AcDbLine
10
20
20
9.9999999999999929
30
0
11
20.000000000000004
21
10.899999999999995
31
0
0
LINE
5
120
100
AcDbEntity
8
0
100
AcDbLine
10
20.000000000000004
20
14.999999999999993
30
0
11
25.000000000000004
21
14.999999999999991
31
0
0
LINE
5
121
100
AcDbEntity
8
0
100
AcDbLine
10
14.000000000000004
20
12.499999999999996
30
0
11
14.000000000000002
21
9.6999999999999975
31
0
0
LINE
5
122
100
AcDbEntity
8
0
100
AcDbLine
10
17
20
10.899999999999997
30
0
11
20.000000000000004
21
10.899999999999995
31
0
0
LINE
5
123
100
AcDbEntity
8
0
100
AcDbLine
10
14.000000000000002
20
9.6999999999999975
30
0
11
17
21
9.6999999999999975
31
0
0
LINE
5
124
100
AcDbEntity
8
0
100
AcDbLine
10
25
20
19.999999999999996
30
0
11
25.000000000000004
21
14.999999999999991
31
0
0
LINE
5
125
100
AcDbEntity
8
0
100
AcDbLine
10
-25
20
0
30
0
11
-25
21
10
31
8.8817841970012523e-15
0
LINE
5
126
100
AcDbEntity
8
0
100
AcDbLine
10
25
20
0
30
0
11
25.000000000000004
21
9.9999999999999929
31
0
0
LINE
5
127
100
AcDbEntity
8
0
100
AcDbLine
10
-25
20
15
30
8.8817841970012523e-15
11
-25
21
20
31
8.8817841970012523e-15
0
LINE
5
128
100
AcDbEntity
8
0
100
AcDbLine
10
-25
20
20
30
8.8817841970012523e-15
11
25
21
19.999999999999996
31
0
0
LINE
5
129
100
AcDbEntity
8
0
100
AcDbLine
10
14.000000000000004
20
-9.6999999999999975
30
0
11
17
21
-9.6999999999999975
31
0
0
LINE
5
130
100
AcDbEntity
8
0
100
AcDbLine
10
20
20
-14.999999999999993
30
0
11
25
21
-14.999999999999991
31
0
0
LINE
5
131
100
AcDbEntity
8
0
100
AcDbLine
10
-25
20
-15
30
8.8817841970012523e-15
11
-25
21
-20
31
8.8817841970012523e-15
0
LINE
5
132
100
AcDbEntity
8
0
100
AcDbLine
10
17.000000000000011
20
-15.299999999999995
30
0
11
17
21
-14.099999999999994
31
0
0
LINE
5
133
100
AcDbEntity
8
0
100
AcDbLine
10
-17
20
-14.100000000000001
30
8.8817841970012523e-15
11
-20
21
-14.100000000000001
31
8.8817841970012523e-15
0
LINE
5
134
100
AcDbEntity
8
0
100
AcDbLine
10
25
20
-9.9999999999999929
30
0
11
20
21
-9.9999999999999929
31
0
0
LINE
5
135
100
AcDbEntity
8
0
100
AcDbLine
10
17
20
-14.099999999999994
30
0
11
20
21
-14.099999999999993
31
0
0
LINE
5
136
100
AcDbEntity
8
0
100
AcDbLine
10
17
20
-9.6999999999999975
30
0
11
17
21
-10.899999999999997
31
0
0
LINE
5
137
100
AcDbEntity
8
0
100
AcDbLine
10
-14
20
-9.6999999999999993
30
8.8817841970012523e-15
11
-17
21
-9.6999999999999993
31
8.8817841970012523e-15
0
LINE
5
138
100
AcDbEntity
8
0
100
AcDbLine
10
-17
20
-10.899999999999999
30
8.8817841970012523e-15
11
-20
21
-10.899999999999999
31
8.8817841970012523e-15
0
LINE
5
139
100
AcDbEntity
8
0
100
AcDbLine
10
-20
20
-10
30
8.8817841970012523e-15
11
-20
21
-10.899999999999999
31
8.8817841970012523e-15
0
LINE
5
140
100
AcDbEntity
8
0
100
AcDbLine
10
17
20
-10.899999999999997
30
0
11
20
21
-10.899999999999995
31
0
0
LINE
5
141
100
AcDbEntity
8
0
100
AcDbLine
10
-25
20
-20
30
8.8817841970012523e-15
11
25
21
-19.999999999999996
31
0
0
LINE
5
142
100
AcDbEntity
8
0
100
AcDbLine
10
20
20
-9.9999999999999929
30
0
11
20
21
-10.899999999999995
31
0
0
LINE
5
143
100
AcDbEntity
8
0
100
AcDbLine
10
-17
20
-9.6999999999999993
30
8.8817841970012523e-15
11
-17
21
-10.899999999999999
31
8.8817841970012523e-15
0
LINE
5
144
100
AcDbEntity
8
0
100
AcDbLine
10
-14
20
-12.5
30
8.8817841970012523e-15
11
-14
21
-15.300000000000001
31
8.8817841970012523e-15
0
LINE
5
145
100
AcDbEntity
8
0
100
AcDbLine
10
-25
20
-15
30
8.8817841970012523e-15
11
-20
21
-15
31
8.8817841970012523e-15
0
LINE
5
146
100
AcDbEntity
8
0
100
AcDbLine
10
25
20
-19.999999999999996
30
0
11
25
21
-14.999999999999991
31
0
0
LINE
5
147
100
AcDbEntity
8
0
100
AcDbLine
10
20
20
-14.999999999999993
30
0
11
20
21
-14.099999999999993
31
0
0
LINE
5
148
100
AcDbEntity
8
0
100
AcDbLine
10
-20
20
-15
30
8.8817841970012523e-15
11
-20
21
-14.100000000000001
31
8.8817841970012523e-15
0
LINE
5
149
100
AcDbEntity
8
0
100
AcDbLine
10
14.000000000000004
20
-12.499999999999996
30
0
11
14.000000000000004
21
-15.299999999999995
31
0
0
LINE
5
150
100
AcDbEntity
8
0
100
AcDbLine
10
-14
20
-12.5
30
8.8817841970012523e-15
11
-14
21
-9.6999999999999993
31
8.8817841970012523e-15
0
LINE
5
151
100
AcDbEntity
8
0
100
AcDbLine
10
-17
20
-15.300000000000001
30
8.8817841970012523e-15
11
-17
21
-14.100000000000001
31
8.8817841970012523e-15
0
LINE
5
152
100
AcDbEntity
8
0
100
AcDbLine
10
-14
20
-15.300000000000001
30
8.8817841970012523e-15
11
-17
21
-15.300000000000001
31
8.8817841970012523e-15
0
LINE
5
153
100
AcDbEntity
8
0
100
AcDbLine
10
-20
20
-10
30
8.8817841970012523e-15
11
-25
21
-10
31
8.8817841970012523e-15
0
LINE
5
154
100
AcDbEntity
8
0
100
AcDbLine
10
14.000000000000004
20
-12.499999999999996
30
0
11
14.000000000000004
21
-9.6999999999999975
31
0
0
LINE
5
155
100
AcDbEntity
8
0
100
AcDbLine
10
14.000000000000004
20
-15.299999999999995
30
0
11
17.000000000000011
21
-15.299999999999995
31
0
0
LINE
5
156
100
AcDbEntity
8
0
100
AcDbLine
10
-25
20
0
30
0
11
-25
21
-10
31
8.8817841970012523e-15
0
LINE
5
157
100
AcDbEntity
8
0
100
AcDbLine
10
25
20
0
30
0
11
25
21
-9.9999999999999929
31
0
0
LWPOLYLINE
5
158
100
AcDbEntity
8
0
100
AcDbPolyline
90
4
70
1
43
0.0
10
20
20
-5.9791224344427398
10
9.8750305098727758
20
-5.9791224344427443
10
9.8750305098727651
20
6.0208775655572575
10
19.999999999999996
20
6.0208775655572575
0
CIRCLE
5
159
100
AcDbEntity
8
0
100
AcDbCircle
10
0
20
0
30
0
40
5.25
0
CIRCLE
5
160
100
AcDbEntity
8
0
100
AcDbCircle
10
0
20
12.5
30
0
40
2.5
0
CIRCLE
5
161
100
AcDbEntity
8
0
100
AcDbCircle
10
-7.5
20
12.5
30
0
40
2.5
0
CIRCLE
5
162
100
AcDbEntity
8
0
100
AcDbCircle
10
7.5
20
12.5
30
0
40
2.5
0
CIRCLE
5
163
100
AcDbEntity
8
0
100
AcDbCircle
10
0
20
-12.5
30
0
40
2.5
0
CIRCLE
5
164
100
AcDbEntity
8
0
100
AcDbCircle
10
7.5
20
-12.5
30
0
40
2.5
0
CIRCLE
5
165
100
AcDbEntity
8
0
100
AcDbCircle
10
-7.5
20
-12.5
30
0
40
2.5
0
CIRCLE
5
166
100
AcDbEntity
8
0
100
AcDbCircle
10
-20
20
5
30
0
40
1.5
0
CIRCLE
5
167
100
AcDbEntity
8
0
100
AcDbCircle
10
-15
20
5
30
0
40
1.5000000000000011
0
CIRCLE
5
168
100
AcDbEntity
8
0
100
AcDbCircle
10
-10
20
5
30
0
40
1.4999999999999993
0
CIRCLE
5
169
100
AcDbEntity
8
0
100
AcDbCircle
10
-20
20
0
30
0
40
1.4999999999999991
0
CIRCLE
5
170
100
AcDbEntity
8
0
100
AcDbCircle
10
-15
20
0
30
0
40
1.4999999999999996
0
CIRCLE
5
171
100
AcDbEntity
8
0
100
AcDbCircle
10
-10
20
0
30
0
40
1.5000000000000004
0
CIRCLE
5
172
100
AcDbEntity
8
0
100
AcDbCircle
10
-20
20
-5
30
0
40
1.4999999999999993
0
CIRCLE
5
173
100
AcDbEntity
8
0
100
AcDbCircle
10
-15
20
-5
30
0
40
1.5
0
CIRCLE
5
174
100
AcDbEntity
8
0
100
AcDbCircle
10
-10.086028963766744
20
-5.4187108354268343
30
0
40
1.5
0
ENDSEC
0
SECTION
2
OBJECTS
0
DICTIONARY
5
C
100
AcDbDictionary
3
ACAD_GROUP
350
D
3
ACAD_MLINESTYLE
350
17
0
DICTIONARY
5
D
100
AcDbDictionary
0
DICTIONARY
5
1A
330
C
100
AcDbDictionary
0
DICTIONARY
5
17
100
AcDbDictionary
0
ENDSEC
0
EOF
